…
``` r
# remove non-dps specs
non_dps <- c("Dk.Blood", "Dru.Restoration", "Pal.Holy", "Pal.Protection", "Pri.Discipline", "Pri.Holy", "Sham.Restoration")
df_dps <- df %>% dplyr::filter(!(class_spec %in% non_dps))
```

``` r
# summary statistics
df %>%
  group_by(class_spec) %>%
  get_summary_stats(DPS, type="mean_sd")
```

    ## # A tibble: 29 × 5
    ##    class_spec         variable     n    mean     sd
    ##    <fct>              <fct>    <dbl>   <dbl>  <dbl>
    ##  1 Dk.Blood           DPS         18 12299.  3480. 
    ##  2 Dk.Frost           DPS          1 22866.    NA  
    ##  3 Dk.Unholy          DPS         28 27742.  2790. 
    ##  4 Dru.Balance        DPS         28 23717.  4591. 
    ##  5 Dru.Feral_Combat   DPS         18 22583.  3085. 
    ##  6 Dru.Restoration    DPS         28    30.4   61.0
    ##  7 Hunt.Beast_Mastery DPS          4 25724.  2630. 
    ##  8 Hunt.Marksmanship  DPS          1 25160.    NA  
    ##  9 Hunt.Survival      DPS         51 26847.  2406. 
    ## 10 Mag.Arcane         DPS          1 10702.    NA  
    ## # … with 19 more rows
…
``` r
# post hoc comparisons Bonferroni corrected
post_hoc <- df_max_dps %>% 
  pairwise_t_test(
    DPS ~ class_spec,
    paired=FALSE,
    p.adjust.method="bonferroni"
  )
post_hoc
```

    ## # A tibble: 45 × 9
    ##    .y.   group1        group2          n1    n2        p p.sig…¹   p.adj p.adj…²
    ##  * <chr> <chr>         <chr>        <int> <int>    <dbl> <chr>     <dbl> <chr>  
    ##  1 DPS   Dk.Unholy     Dru.Balance     28    28 3.37e- 5 ****    1.52e-3 **     
    ##  2 DPS   Dk.Unholy     Hunt.Surviv…    28    51 2.87e- 1 ns      1   e+0 ns     
    ##  3 DPS   Dru.Balance   Hunt.Surviv…    28    51 2.38e- 4 ***     1.07e-2 *      
    ##  4 DPS   Dk.Unholy     Mag.Fire        28    20 4.11e- 3 **      1.85e-1 ns     
    ##  5 DPS   Dru.Balance   Mag.Fire        28    20 8.88e-11 ****    4   e-9 ****   
    ##  6 DPS   Hunt.Survival Mag.Fire        51    20 4.22e- 5 ****    1.9 e-3 **     
    ##  7 DPS   Dk.Unholy     Pal.Retribu…    28    29 5.51e- 1 ns      1   e+0 ns     
    ##  8 DPS   Dru.Balance   Pal.Retribu…    28    29 3.08e- 4 ***     1.39e-2 *      
    ##  9 DPS   Hunt.Survival Pal.Retribu…    51    29 6.92e- 1 ns      1   e+0 ns     
    ## 10 DPS   Mag.Fire      Pal.Retribu…    20    29 6.26e- 4 ***     2.82e-2 *      
    ## # … with 35 more rows, and abbreviated variable names ¹​p.signif, ²​p.adj.signif
…
``` r
# post hoc comparisons
post_hoc_guild <- df_dps %>% pairwise_t_test(DPS ~ guild, p.adjust.method = "bonferroni")
post_hoc_guild
```

    ## # A tibble: 21 × 9
    ##    .y.   group1        group2           n1    n2        p p.sig…¹  p.adj p.adj…²
    ##  * <chr> <chr>         <chr>         <int> <int>    <dbl> <chr>    <dbl> <chr>  
    ##  1 DPS   No Guild      Below Average   112    17 0.0825   ns      1      ns     
    ##  2 DPS   No Guild      GG              112    30 0.343    ns      1      ns     
    ##  3 DPS   Below Average GG               17    30 0.396    ns      1      ns     
    ##  4 DPS   No Guild      Illusion        112    67 0.00826  **      0.173  ns     
    ##  5 DPS   Below Average Illusion         17    67 0.0016   **      0.0336 *      
    ##  6 DPS   GG            Illusion         30    67 0.00615  **      0.129  ns     
    ##  7 DPS   No Guild      Prime           112    39 0.114    ns      1      ns     
    ##  8 DPS   Below Average Prime            17    39 0.585    ns      1      ns     
    ##  9 DPS   GG            Prime            30    39 0.683    ns      1      ns     
    ## 10 DPS   Illusion      Prime            67    39 0.000526 ***     0.011  *      
    ## # … with 11 more rows, and abbreviated variable names ¹​p.signif, ²​p.adj.signif
…
``` r
# post hoc comparisons
post_hoc_guild_ilvl <- df_dps %>% pairwise_t_test(itemlvl ~ guild, p.adjust.method = "bonferroni")
post_hoc_guild_ilvl
```

    ## # A tibble: 21 × 9
    ##    .y.     group1        group2         n1    n2       p p.sig…¹   p.adj p.adj…²
    ##  * <chr>   <chr>         <chr>       <int> <int>   <dbl> <chr>     <dbl> <chr>  
    ##  1 itemlvl No Guild      Below Aver…   112    17 4.15e-2 *       0.871   ns     
    ##  2 itemlvl No Guild      GG            112    30 1.58e-1 ns      1       ns     
    ##  3 itemlvl Below Average GG             17    30 4.27e-1 ns      1       ns     
    ##  4 itemlvl No Guild      Illusion      112    67 1.23e-1 ns      1       ns     
    ##  5 itemlvl Below Average Illusion       17    67 4.77e-3 **      0.1     ns     
    ##  6 itemlvl GG            Illusion       30    67 1.64e-2 *       0.345   ns     
    ##  7 itemlvl No Guild      Prime         112    39 9.85e-4 ***     0.0207  *      
    ##  8 itemlvl Below Average Prime          17    39 7.7 e-1 ns      1       ns     
    ##  9 itemlvl GG            Prime          30    39 1.8 e-1 ns      1       ns     
    ## 10 itemlvl Illusion      Prime          67    39 2.71e-5 ****    0.00057 ***    
    ## # … with 11 more rows, and abbreviated variable names ¹​p.signif, ²​p.adj.signif
…
